{
  "251521": [
    [
      36,
      55
    ]
  ],
  "251522": [
    [
      1,
      10
    ],
    [
      57,
      57
    ]
  ],
  "251523": [
    [
      1,
      8
    ],
    [
      19,
      19
    ]
  ],
  "251548": [
    [
      60,
      91
    ]
  ],
  "251559": [
    [
      43,
      52
    ],
    [
      55,
      64
    ],
    [
      67,
      72
    ]
  ],
  "251560": [
    [
      1,
      5
    ],
    [
      7,
      10
    ],
    [
      84,
      84
    ]
  ],
  "251561": [
    [
      1,
      125
    ]
  ],
  "251562": [
    [
      1,
      439
    ],
    [
      443,
      710
    ]
  ]
}
